<?xml version="1.0" standalone="no"?>
<!DOCTYPE svg PUBLIC "-//W3C//DTD SVG 1.1//EN" "http://www.w3.org/Graphics/SVG/1.1/DTD/svg11.dtd" >
<svg xmlns="http://www.w3.org/2000/svg">
<metadata>Generated by IcoMoon</metadata>
<defs>
<font id="icomoon" horiz-adv-x="1024">
<font-face units-per-em="1024" ascent="960" descent="-64" />
<missing-glyph horiz-adv-x="1024" />
<glyph unicode="&#x20;" horiz-adv-x="512" d="" />
<glyph unicode="&#xe900;" glyph-name="add-outline" d="M563.2 512h204.8v-102.4h-204.8v-204.8h-102.4v204.8h-204.8v102.4h204.8v204.8h102.4v-204.8zM512-51.2c-282.77 0-512 229.23-512 512s229.23 512 512 512v0c282.77 0 512-229.23 512-512s-229.23-512-512-512v0zM512 51.2c226.216 0 409.6 183.384 409.6 409.6s-183.384 409.6-409.6 409.6v0c-226.216 0-409.6-183.384-409.6-409.6s183.384-409.6 409.6-409.6v0z" />
<glyph unicode="&#xe901;" glyph-name="add-solid" d="M563.2 512v204.8h-102.4v-204.8h-204.8v-102.4h204.8v-204.8h102.4v204.8h204.8v102.4h-204.8zM512-51.2c-282.77 0-512 229.23-512 512s229.23 512 512 512v0c282.77 0 512-229.23 512-512s-229.23-512-512-512v0z" />
<glyph unicode="&#xe902;" glyph-name="x" d="M225.835 652.502l225.835-225.835-225.835-225.835c-16.683-16.683-16.683-43.691 0-60.331s43.691-16.683 60.331 0l225.835 225.835 225.835-225.835c16.683-16.683 43.691-16.683 60.331 0s16.683 43.691 0 60.331l-225.835 225.835 225.835 225.835c16.683 16.683 16.683 43.691 0 60.331s-43.691 16.683-60.331 0l-225.835-225.835-225.835 225.835c-16.683 16.683-43.691 16.683-60.331 0s-16.683-43.691 0-60.331z" />
<glyph unicode="&#xe903;" glyph-name="dance" d="M551.685 707.222c10.497 12.263 14.477 28.814 10.71 44.51-3.565 15.472-14.433 28.24-29.136 34.235-18.525 7.151-39.541 2.123-52.82-12.643l-110.518-118.834c17.976 53.613-10.913 111.649-64.526 129.625s-111.649-10.913-129.625-64.526c-14.428-43.034 1.195-90.432 38.387-116.447h-2.771c-23.519 1.572-46.466-7.702-62.286-25.177-0.717-0.755-1.365-1.577-1.933-2.449l-137.368-210.521c-8.798-13.552-11.471-30.184-7.367-45.811 3.913-15.179 14.038-28.010 27.893-35.342 25.132-13.21 56.21-4.337 70.578 20.152l69.652 114.288v-122.197l-60.284-296.456c-3.416-15.096 0.134-30.926 9.667-43.119 8.549-10.785 21.55-17.076 35.31-17.093 28.588 0.499 52.924 20.946 58.345 49.020l46.010 237.66h56.143l52.22-247.986c2.904-14.281 11.525-26.751 23.86-34.51 7.941-4.975 17.123-7.608 26.493-7.599 4.625 0.011 9.229 0.617 13.701 1.801 27.376 7.503 44.019 35.2 37.794 62.894l-60.536 295.406v246.102l142.407 165.017zM204.592 686.912c0.038 37.689 30.581 68.234 68.27 68.278 37.704 0 68.27-30.566 68.27-68.27s-30.566-68.27-68.27-68.27c-37.702 0-68.266 30.561-68.27 68.261zM375.491 290.944l60.912-297.222c2.319-10.147-3.759-20.323-13.793-23.092-4.35-1.146-8.982-0.431-12.784 1.976-4.42 2.805-7.478 7.322-8.442 12.468l-55.085 261.61c-1.662 7.898-8.63 13.554-16.701 13.552h-84.070c-8.175-0.002-15.203-5.799-16.76-13.825l-48.702-251.553c-2.791-11.578-12.6-20.123-24.451-21.3-3.527-0.060-6.878 1.538-9.050 4.316-3.1 4.282-4.15 9.714-2.867 14.842l60.654 298.256c0.226 1.12 0.341 2.257 0.341 3.399v184.717c0.002 9.426-7.638 17.070-17.063 17.072-5.957 0.002-11.482-3.102-14.58-8.188l-101.296-166.207c-5.127-8.986-16.41-12.359-25.627-7.659-5.355 2.84-9.238 7.836-10.667 13.727-1.675 6.309-0.612 13.033 2.925 18.518l136.465 209.143c9.342 10.051 22.9 15.068 36.535 13.517h118.214c4.74 0.002 9.268 1.973 12.5 5.442l163.334 175.624c3.571 4.354 9.445 6.078 14.802 4.342 4.54-1.848 7.885-5.801 8.958-10.584 1.237-5.031-0.004-10.349-3.341-14.309l-146.556-169.817c-2.675-3.1-4.15-7.055-4.15-11.151v-254.188c-0.004-1.15 0.113-2.298 0.346-3.424zM1011.731 707.222c10.497 12.263 14.477 28.814 10.71 44.51-3.565 15.472-14.433 28.24-29.134 34.235-18.525 7.117-39.518 2.091-52.811-12.643l-110.535-118.849c17.985 53.611-10.895 111.649-64.507 129.634s-111.649-10.895-129.634-64.507c-14.437-43.036 1.186-90.441 38.383-116.46h-2.771c-23.517 1.572-46.46-7.704-62.279-25.177-0.717-0.755-1.365-1.577-1.933-2.449l-137.366-210.519c-8.794-13.549-11.471-30.177-7.375-45.803 3.908-15.186 14.034-28.023 27.893-35.36 25.136-13.197 56.205-4.322 70.578 20.161l69.655 114.288v-105.221l-60.278-313.423c-3.422-15.096 0.124-30.933 9.658-43.127 8.547-10.785 21.55-17.078 35.31-17.093 28.584 0.51 52.913 20.95 58.345 49.020l46.020 237.658h56.143l52.212-247.986c2.906-14.277 11.527-26.745 23.86-34.502 7.939-4.979 17.121-7.616 26.493-7.608 4.625 0.011 9.229 0.617 13.701 1.801 27.321 7.469 43.97 35.067 37.834 62.719l-60.57 312.557v229.127l142.398 165.017zM664.64 686.912c0.038 37.689 30.581 68.234 68.27 68.278 37.704 0 68.27-30.566 68.27-68.27s-30.566-68.27-68.27-68.27c-37.702 0-68.266 30.561-68.27 68.261zM835.505 308.186l60.944-314.464c2.319-10.144-3.755-20.319-13.784-23.092-4.352-1.148-8.988-0.433-12.792 1.976-4.42 2.805-7.478 7.322-8.442 12.468l-55.077 261.608c-1.662 7.898-8.63 13.554-16.701 13.552h-84.070c-8.175-0.002-15.203-5.799-16.758-13.825l-48.711-251.553c-2.746-11.606-12.579-20.172-24.451-21.3-3.527-0.060-6.878 1.538-9.050 4.316-3.119 4.342-4.154 9.839-2.825 15.017l60.645 315.322c0.207 1.062 0.309 2.144 0.309 3.226v167.65c0.002 9.426-7.638 17.070-17.063 17.072-5.957 0.002-11.482-3.102-14.58-8.188l-101.296-166.207c-5.137-8.971-16.406-12.342-25.627-7.668-5.353 2.846-9.234 7.845-10.667 13.735-1.673 6.311-0.606 13.033 2.933 18.518l136.465 209.143c9.338 10.051 22.896 15.068 36.527 13.517h118.222c4.74 0.002 9.268 1.973 12.5 5.442l163.34 175.624c3.567 4.35 9.432 6.072 14.785 4.342 4.54-1.848 7.885-5.801 8.958-10.584 1.237-5.031-0.004-10.347-3.341-14.309l-146.548-169.817c-2.675-3.1-4.15-7.055-4.15-11.151v-237.119c-0.002-1.090 0.102-2.178 0.303-3.249zM256.179 960h-136.54c-9.426 0-17.067-7.642-17.067-17.067l-0.009-126.374c-10.791 4.587-22.401 6.934-34.126 6.902-38.285 0-68.27-22.493-68.27-51.202s29.985-51.202 68.27-51.202c38.285 0 68.27 22.493 68.27 51.202l-0.009 0.064v85.273h119.481c9.426 0 17.067 7.642 17.067 17.067v68.27c0 9.426-7.642 17.067-17.067 17.067zM68.436 755.19c-20.835 0-34.135 10.108-34.135 17.067s13.3 17.067 34.135 17.067c20.799 0 34.082-10.072 34.126-17.029v-0.038h0.009c0-6.959-13.302-17.067-34.135-17.067zM239.111 891.73h-102.405v34.135h102.405v-34.135z" />
<glyph unicode="&#xe904;" glyph-name="consultation" d="M311.375 338h-65.875v101.969c0 33.172-13.242 63.289-34.695 85.398 36.641 24.352 60.852 65.984 60.852 113.188 0 74.891-60.93 135.828-135.828 135.828s-135.828-60.93-135.828-135.828c0-40.805 18.109-77.43 46.68-102.352-28.406-22.5-46.68-57.258-46.68-96.234v-303.719h200.25v-200.25h201.75v311.375c0 49.969-40.656 90.625-90.625 90.625zM135.828 714.383c41.813 0 75.828-34.016 75.828-75.828s-34.016-75.836-75.828-75.836-75.828 34.023-75.828 75.836 34.016 75.828 75.828 75.828zM342-4h-81.75v200.25h-200.25v243.719c0 34.602 28.148 62.75 62.75 62.75s62.75-28.148 62.75-62.75v-161.969h125.875c16.883 0 30.625-13.742 30.625-30.625zM977.32 536.203c28.57 24.922 46.68 61.547 46.68 102.352 0 74.898-60.93 135.828-135.828 135.828s-135.828-60.93-135.828-135.828c0-47.195 24.211-88.836 60.852-113.188-21.453-22.109-34.695-52.227-34.695-85.391v-101.977h-65.875c-49.969 0-90.625-40.656-90.625-90.625v-311.375h201.75v200.25h200.25v303.719c0 38.977-18.273 73.734-46.68 96.234zM888.172 714.383c41.813 0 75.828-34.016 75.828-75.828s-34.016-75.836-75.828-75.836-75.828 34.023-75.828 75.836 34.016 75.828 75.828 75.828zM964 196.25h-200.25v-200.25h-81.75v251.375c0 16.883 13.742 30.625 30.625 30.625h125.875v161.969c0 34.602 28.148 62.75 62.75 62.75s62.75-28.148 62.75-62.75zM704 716.672v158.664c0 46.688-37.977 84.664-84.664 84.664h-214.672c-46.688 0-84.664-37.977-84.664-84.664v-158.664c0-46.688 37.977-84.672 84.664-84.672h36.344l70.992-122.961 70.992 122.961h36.344c46.688 0 84.664 37.984 84.664 84.672zM644 716.672c0-13.609-11.063-24.672-24.664-24.672h-70.984l-36.352-62.961-36.352 62.961h-70.984c-13.602 0-24.664 11.063-24.664 24.672v158.664c0 13.602 11.063 24.664 24.664 24.664h214.672c13.602 0 24.664-11.063 24.664-24.664z" />
<glyph unicode="&#xe905;" glyph-name="pencil" d="M864 960c88.364 0 160-71.634 160-160 0-36.020-11.91-69.258-32-96l-64-64-224 224 64 64c26.742 20.090 59.978 32 96 32zM64 224l-64-288 288 64 592 592-224 224-592-592zM715.578 596.422l-448-448-55.156 55.156 448 448 55.156-55.156z" />
<glyph unicode="&#xe906;" glyph-name="stethoscope" d="M922.672 497.331c-55.872 0-101.326-45.456-101.326-101.328 0-45.432 30.056-83.974 71.328-96.792v-236.998c0-36.496-29.692-66.186-66.186-66.186s-66.186 29.69-66.186 66.186v99.662c0 69.578-56.606 126.182-126.184 126.182s-126.182-56.604-126.182-126.182v-99.662c0-36.496-29.69-66.186-66.186-66.186s-66.186 29.69-66.186 66.186v210.94c97.56 11.442 180.85 78.066 212.516 172.988l96.498 289.261c12.866 38.568 6.612 79.608-17.156 112.594-23.77 32.986-60.718 51.902-101.376 51.902h-71.948v60.070h-59.996v-180.134h59.996v60.068h71.946c21.134 0 40.346-9.834 52.7-26.982 12.358-17.146 15.61-38.482 8.92-58.53l-96.498-289.261c-26.684-79.996-101.272-133.74-185.598-133.74s-158.914 53.746-185.6 133.74l-96.5 289.259c-6.688 20.050-3.438 41.384 8.918 58.532 12.358 17.148 31.566 26.982 52.702 26.982h71.952v-60.068h59.996v180.134h-59.996v-60.068h-71.952c-40.658 0-77.61-18.918-101.378-51.904s-30.022-74.024-17.156-112.594l96.498-289.261c31.666-94.922 114.956-161.548 212.516-172.988v-210.94c0-69.578 56.604-126.182 126.182-126.182s126.182 56.604 126.182 126.182v99.662c0 36.496 29.692 66.186 66.186 66.186 36.496 0 66.188-29.69 66.188-66.186v-99.662c0-69.578 56.604-126.182 126.182-126.182s126.182 56.604 126.182 126.182v236.998c41.27 12.818 71.328 51.358 71.328 96.792 0.002 55.874-45.454 101.328-101.326 101.328zM922.672 354.673c-22.79 0-41.33 18.54-41.33 41.332s18.54 41.332 41.33 41.332c22.788 0 41.332-18.54 41.332-41.332s-18.544-41.332-41.332-41.332z" />
<glyph unicode="&#xe9ac;" glyph-name="bin" d="M128 640v-640c0-35.2 28.8-64 64-64h576c35.2 0 64 28.8 64 64v640h-704zM320 64h-64v448h64v-448zM448 64h-64v448h64v-448zM576 64h-64v448h64v-448zM704 64h-64v448h64v-448zM848 832h-208v80c0 26.4-21.6 48-48 48h-224c-26.4 0-48-21.6-48-48v-80h-208c-26.4 0-48-21.6-48-48v-80h832v80c0 26.4-21.6 48-48 48zM576 832h-192v63.198h192v-63.198z" />
<glyph unicode="&#xea1c;" glyph-name="play3" d="M192 832l640-384-640-384z" />
<glyph unicode="&#xea50;" glyph-name="ctrl-right" d="M404 195.984c0 10.021 4.16 19.991 12.294 27.108l257.038 224.908-257.038 224.908c-14.962 13.090-16.481 35.838-3.386 50.798 13.093 14.962 35.836 16.479 50.798 3.386l288-252c7.812-6.835 12.294-16.711 12.294-27.092s-4.482-20.257-12.294-27.092l-288-252c-14.962-13.093-37.705-11.578-50.798 3.386-5.976 6.829-8.908 15.28-8.908 23.69z" />
<glyph unicode="&#xea51;" glyph-name="ctrl-left" d="M620 700.016c0-10.021-4.16-19.991-12.294-27.108l-257.038-224.908 257.038-224.908c14.962-13.090 16.481-35.838 3.386-50.798-13.093-14.962-35.836-16.479-50.798-3.386l-288 252c-7.812 6.835-12.294 16.711-12.294 27.092s4.482 20.257 12.294 27.092l288 252c14.962 13.093 37.705 11.578 50.798-3.386 5.976-6.829 8.908-15.28 8.908-23.69z" />
<glyph unicode="&#xea90;" glyph-name="facebook" d="M608 768h160v192h-160c-123.514 0-224-100.486-224-224v-96h-128v-192h128v-512h192v512h160l32 192h-192v96c0 17.346 14.654 32 32 32z" />
<glyph unicode="&#xea9d;" glyph-name="youtube" d="M1013.8 652.8c0 0-10 70.6-40.8 101.6-39 40.8-82.6 41-102.6 43.4-143.2 10.4-358.2 10.4-358.2 10.4h-0.4c0 0-215 0-358.2-10.4-20-2.4-63.6-2.6-102.6-43.4-30.8-31-40.6-101.6-40.6-101.6s-10.2-82.8-10.2-165.8v-77.6c0-82.8 10.2-165.8 10.2-165.8s10-70.6 40.6-101.6c39-40.8 90.2-39.4 113-43.8 82-7.8 348.2-10.2 348.2-10.2s215.2 0.4 358.4 10.6c20 2.4 63.6 2.6 102.6 43.4 30.8 31 40.8 101.6 40.8 101.6s10.2 82.8 10.2 165.8v77.6c-0.2 82.8-10.4 165.8-10.4 165.8zM406.2 315.2v287.8l276.6-144.4-276.6-143.4z" />
</font></defs></svg>